[gd_scene load_steps=6 format=2]

[ext_resource path="res://scripts/asteroid.gd" type="Script" id=1]
[ext_resource path="res://meshes/asteroid_sd.tscn" type="PackedScene" id=2]
[ext_resource path="res://meshes/nug.mesh" type="ArrayMesh" id=3]
[ext_resource path="res://actors/nuggie.tscn" type="PackedScene" id=4]

[sub_resource type="ConvexPolygonShape" id=1]
points = PoolVector3Array( -0.70662, -0.454928, 0.602787, -0.793802, -0.238065, 0.612537, -0.858554, -0.242107, 0.207322, -0.696707, -0.679607, 0.153912, -0.400171, -0.813542, 0.51078, -0.645074, -0.817523, 0.161135, -0.167606, -1.02623, 0.246152, -0.186382, -0.869919, 0.540901, -0.480403, -0.685371, 0.605311, -0.19704, -0.671413, 0.73351, -0.309056, -0.335348, 0.733622, -0.600004, -0.32147, 0.689333, -0.70662, -0.454928, 0.602787, -0.480403, -0.685371, 0.605311, -0.600004, -0.32147, 0.689333, -0.793802, -0.238065, 0.612537, -0.70662, -0.454928, 0.602787, -0.696707, -0.679607, 0.153912, -0.61582, -0.720613, 0.32409, -0.480403, -0.685371, 0.605311, -0.163992, -0.513145, 0.863506, -0.213561, -0.281134, 0.890356, -0.309056, -0.335348, 0.733622, -0.19704, -0.671413, 0.73351, -0.486489, -0.136218, 0.804934, -0.600004, -0.32147, 0.689333, -0.309056, -0.335348, 0.733622, -0.213561, -0.281134, 0.890356, -0.400171, -0.813542, 0.51078, -0.480403, -0.685371, 0.605311, -0.61582, -0.720613, 0.32409, -0.645074, -0.817523, 0.161135, -0.400171, -0.813542, 0.51078, -0.186382, -0.869919, 0.540901, -0.19704, -0.671413, 0.73351, -0.480403, -0.685371, 0.605311, -0.699309, -0.736621, 0.083241, -0.645074, -0.817523, 0.161135, -0.61582, -0.720613, 0.32409, -0.696707, -0.679607, 0.153912, -0.662126, -0.034514, 0.827018, -0.793802, -0.238065, 0.612537, -0.600004, -0.32147, 0.689333, -0.486489, -0.136218, 0.804934, -0.799644, 0.164641, 0.600999, -0.689193, 0.306539, 0.568049, -0.729259, 0.454707, 0.234601, -0.907939, 0.158348, 0.263239, -0.522795, 0.128647, 0.960907, -0.196419, 0.0917484, 1.07843, -0.170152, 0.385644, 0.828096, -0.480079, 0.367076, 0.852714, -0.529022, 0.828442, 0.258931, -0.137498, 0.929966, 0.237381, -0.179892, 0.996326, 0.0668179, -0.400939, 0.998031, 0.0528235, -0.0982433, 0.942111, 0.425877, -0.137498, 0.929966, 0.237381, -0.529022, 0.828442, 0.258931, -0.477776, 0.652311, 0.540694, -0.70883, 0.121197, 0.779998, -0.522795, 0.128647, 0.960907, -0.480079, 0.367076, 0.852714, -0.680277, 0.304555, 0.754237, -0.506857, 0.563292, 0.592849, -0.626106, 0.526628, 0.330385, -0.729259, 0.454707, 0.234601, -0.689193, 0.306539, 0.568049, -0.70883, 0.121197, 0.779998, -0.680277, 0.304555, 0.754237, -0.689193, 0.306539, 0.568049, -0.799644, 0.164641, 0.600999, -0.170152, 0.385644, 0.828096, -0.164769, 0.560854, 0.676525, -0.506857, 0.563292, 0.592849, -0.480079, 0.367076, 0.852714, -0.506857, 0.563292, 0.592849, -0.477776, 0.652311, 0.540694, -0.529022, 0.828442, 0.258931, -0.626106, 0.526628, 0.330385, -0.506857, 0.563292, 0.592849, -0.164769, 0.560854, 0.676525, -0.0982433, 0.942111, 0.425877, -0.477776, 0.652311, 0.540694, -0.729259, 0.454707, 0.234601, -0.626106, 0.526628, 0.330385, -0.529022, 0.828442, 0.258931, -0.792767, 0.655289, 0.191516, -0.480079, 0.367076, 0.852714, -0.506857, 0.563292, 0.592849, -0.689193, 0.306539, 0.568049, -0.680277, 0.304555, 0.754237, -0.78786, -0.526527, -0.157578, -0.943477, -0.189003, -0.148192, -0.805792, -0.371956, -0.422016, -0.716576, -0.486586, -0.428839, 0.00964191, -1.13403, -0.130763, -0.131825, -0.923614, -0.150822, -0.078509, -1.07805, -0.28756, -0.135284, -0.954088, -0.532494, -0.624723, -0.762848, -0.161514, -0.550088, -0.804233, -0.300518, -0.135284, -0.954088, -0.532494, -0.131825, -0.923614, -0.150822, -0.674762, -0.203166, -0.850202, -0.224113, -0.303775, -0.927352, -0.0584988, -0.613509, -0.807756, -0.561216, -0.50022, -0.670087, -0.674762, -0.203166, -0.850202, -0.419776, -0.10812, -0.937662, -0.279215, -0.210383, -0.956679, -0.224113, -0.303775, -0.927352, -0.78786, -0.526527, -0.157578, -0.716576, -0.486586, -0.428839, -0.666635, -0.549054, -0.451535, -0.649325, -0.700548, -0.216433, -0.799524, -0.192233, -0.778317, -0.674762, -0.203166, -0.850202, -0.561216, -0.50022, -0.670087, -0.664246, -0.425729, -0.630129, -0.550088, -0.804233, -0.300518, -0.327613, -0.772904, -0.605663, -0.0704729, -0.762962, -0.685802, -0.135284, -0.954088, -0.532494, -0.716576, -0.486586, -0.428839, -0.805792, -0.371956, -0.422016, -0.799524, -0.192233, -0.778317, -0.664246, -0.425729, -0.630129, -0.624723, -0.762848, -0.161514, -0.649325, -0.700548, -0.216433, -0.666635, -0.549054, -0.451535, -0.550088, -0.804233, -0.300518, -0.561216, -0.50022, -0.670087, -0.0584988, -0.613509, -0.807756, -0.0704729, -0.762962, -0.685802, -0.327613, -0.772904, -0.605663, -0.550088, -0.804233, -0.300518, -0.666635, -0.549054, -0.451535, -0.561216, -0.50022, -0.670087, -0.327613, -0.772904, -0.605663, -0.78786, -0.526527, -0.157578, -0.649325, -0.700548, -0.216433, -0.624723, -0.762848, -0.161514, -0.706491, -0.719984, -0.0214473, -0.716576, -0.486586, -0.428839, -0.664246, -0.425729, -0.630129, -0.561216, -0.50022, -0.670087, -0.666635, -0.549054, -0.451535, -1.00174, 0.0521817, -0.157844, -0.908483, 0.479345, -0.116641, -0.955597, 0.410046, -0.396118, -1.03857, 0.116534, -0.421652, -0.474081, 0.937736, -0.190026, -0.369484, 1.01933, -0.00578002, -0.352679, 0.975302, -0.303522, -0.449833, 0.846014, -0.501267, -0.352679, 0.975302, -0.303522, -0.149747, 1.01252, -0.342852, -0.146555, 0.873647, -0.557004, -0.449833, 0.846014, -0.501267, -0.179097, 1.02186, -0.175057, -0.149747, 1.01252, -0.342852, -0.352679, 0.975302, -0.303522, -0.369484, 1.01933, -0.00578002, -0.480396, 0.437997, -0.880125, -0.157743, 0.428407, -0.787217, -0.242075, 0.241655, -0.958845, -0.477748, 0.198949, -0.911113, -0.242075, 0.241655, -0.958845, -0.275673, 0.18365, -0.974691, -0.370281, 0.126989, -0.944478, -0.477748, 0.198949, -0.911113, -0.474081, 0.937736, -0.190026, -0.449833, 0.846014, -0.501267, -0.730342, 0.670783, -0.452015, -0.776471, 0.663974, -0.0911259, -0.759, 0.442468, -0.730975, -0.480396, 0.437997, -0.880125, -0.477748, 0.198949, -0.911113, -0.978918, 0.248812, -0.647372, -1.03857, 0.116534, -0.421652, -0.955597, 0.410046, -0.396118, -0.759, 0.442468, -0.730975, -0.978918, 0.248812, -0.647372, -0.146555, 0.873647, -0.557004, -0.144859, 0.670454, -0.746992, -0.510861, 0.6899, -0.658095, -0.449833, 0.846014, -0.501267, -0.908483, 0.479345, -0.116641, -0.776471, 0.663974, -0.0911259, -0.730342, 0.670783, -0.452015, -0.955597, 0.410046, -0.396118, -0.510861, 0.6899, -0.658095, -0.144859, 0.670454, -0.746992, -0.157743, 0.428407, -0.787217, -0.480396, 0.437997, -0.880125, -0.955597, 0.410046, -0.396118, -0.730342, 0.670783, -0.452015, -0.694151, 0.629132, -0.610886, -0.759, 0.442468, -0.730975, -0.694151, 0.629132, -0.610886, -0.510861, 0.6899, -0.658095, -0.480396, 0.437997, -0.880125, -0.759, 0.442468, -0.730975, -0.449833, 0.846014, -0.501267, -0.510861, 0.6899, -0.658095, -0.694151, 0.629132, -0.610886, -0.730342, 0.670783, -0.452015, 0.0555308, -0.503322, 0.895653, 0.40157, -0.419421, 0.786328, 0.496445, -0.164737, 0.833189, 0.167861, -0.31086, 1.00931, 0.245764, -0.780958, 0.680766, 0.194106, -1.07497, 0.254397, 0.539866, -0.883515, 0.31205, 0.54133, -0.745828, 0.569761, 0.850583, -0.563396, 0.224208, 1.02717, -0.238651, 0.248816, 0.880917, -0.192952, 0.576384, 0.767593, -0.561114, 0.483642, 0.880917, -0.192952, 0.576384, 1.02717, -0.238651, 0.248816, 1.06116, -0.0971498, 0.195236, 1.01966, -0.0553454, 0.401202, 0.54133, -0.745828, 0.569761, 0.539866, -0.883515, 0.31205, 0.704428, -0.765595, 0.203035, 0.693664, -0.734126, 0.422281, 0.663795, -0.539625, 0.521004, 0.767593, -0.561114, 0.483642, 0.880917, -0.192952, 0.576384, 0.603985, -0.303147, 0.702561, 0.663795, -0.539625, 0.521004, 0.603985, -0.303147, 0.702561, 0.496445, -0.164737, 0.833189, 0.40157, -0.419421, 0.786328, 0.0555308, -0.503322, 0.895653, 0.19574, -0.710131, 0.757031, 0.663795, -0.539625, 0.521004, 0.40157, -0.419421, 0.786328, 0.245764, -0.780958, 0.680766, 0.54133, -0.745828, 0.569761, 0.663795, -0.539625, 0.521004, 0.19574, -0.710131, 0.757031, 0.704428, -0.765595, 0.203035, 0.850583, -0.563396, 0.224208, 0.767593, -0.561114, 0.483642, 0.693664, -0.734126, 0.422281, 0.54133, -0.745828, 0.569761, 0.693664, -0.734126, 0.422281, 0.767593, -0.561114, 0.483642, 0.663795, -0.539625, 0.521004, 0.496445, -0.164737, 0.833189, 0.603985, -0.303147, 0.702561, 0.880917, -0.192952, 0.576384, 0.726378, -0.0754485, 0.772427, 0.165516, 0.155279, 1.05489, 0.456715, 0.000537497, 0.996134, 0.619905, 0.556361, 0.804345, 0.223189, 0.426337, 0.798642, 0.628583, 0.868475, 0.442063, 0.52689, 0.96014, 0.192684, 0.130854, 0.844734, 0.189598, 0.0785198, 0.913814, 0.527876, 0.925025, 0.206106, 0.387521, 1.02822, 0.472708, 0.2499, 0.857362, 0.433009, 0.676227, 0.928301, 0.153765, 0.531374, 0.925025, 0.206106, 0.387521, 1.04692, 0.118968, 0.319964, 1.04474, 0.384712, 0.257991, 1.02822, 0.472708, 0.2499, 1.02024, 0.0725365, 0.446499, 1.04692, 0.118968, 0.319964, 0.925025, 0.206106, 0.387521, 0.928301, 0.153765, 0.531374, 0.456715, 0.000537497, 0.996134, 0.764107, 0.0232789, 0.795237, 0.760001, 0.442209, 0.756638, 0.619905, 0.556361, 0.804345, 0.860896, 0.756994, 0.489967, 0.8469, 0.822523, 0.295972, 0.52689, 0.96014, 0.192684, 0.628583, 0.868475, 0.442063, 0.928301, 0.153765, 0.531374, 0.857362, 0.433009, 0.676227, 0.760001, 0.442209, 0.756638, 0.764107, 0.0232789, 0.795237, 0.600926, 0.679075, 0.775612, 0.628583, 0.868475, 0.442063, 0.0785198, 0.913814, 0.527876, 0.321118, 0.69974, 0.818899, 0.223189, 0.426337, 0.798642, 0.619905, 0.556361, 0.804345, 0.600926, 0.679075, 0.775612, 0.321118, 0.69974, 0.818899, 1.02822, 0.472708, 0.2499, 0.8469, 0.822523, 0.295972, 0.860896, 0.756994, 0.489967, 0.857362, 0.433009, 0.676227, 0.223189, 0.426337, 0.798642, 0.321118, 0.69974, 0.818899, 0.0785198, 0.913814, 0.527876, 0.107271, 0.556173, 0.673639, 0.65219, 0.580396, 0.729125, 0.628583, 0.868475, 0.442063, 0.600926, 0.679075, 0.775612, 0.619905, 0.556361, 0.804345, 0.65219, 0.580396, 0.729125, 0.857362, 0.433009, 0.676227, 0.860896, 0.756994, 0.489967, 0.628583, 0.868475, 0.442063, 0.760001, 0.442209, 0.756638, 0.857362, 0.433009, 0.676227, 0.65219, 0.580396, 0.729125, 0.619905, 0.556361, 0.804345, 0.124573, -1.08963, -0.297526, 0.170168, -0.907056, -0.538351, 0.323857, -1.05199, -0.105944, 0.102122, -1.11794, -0.0901582, 0.323857, -1.05199, -0.105944, 0.170168, -0.907056, -0.538351, 0.644948, -0.893596, -0.51234, 0.524614, -0.962124, -0.103364, 0.134599, -0.263165, -0.839433, 0.497342, -0.368172, -0.878661, 0.52773, -0.501606, -0.846962, 0.000244238, -0.591441, -0.83219, 0.900509, -0.466211, -0.404225, 0.919746, -0.386896, -0.481484, 0.943231, -0.197202, -0.0780269, 0.749703, -0.747326, -0.014123, 0.524614, -0.962124, -0.103364, 0.644948, -0.893596, -0.51234, 0.762553, -0.773247, -0.439297, 0.760984, -0.759077, -0.0932108, 0.497342, -0.368172, -0.878661, 0.747164, -0.216226, -0.69789, 0.740036, -0.426562, -0.671019, 0.52773, -0.501606, -0.846962, 0.170168, -0.907056, -0.538351, 0.146058, -0.728827, -0.60696, 0.484212, -0.887676, -0.643986, 0.644948, -0.893596, -0.51234, 0.740036, -0.426562, -0.671019, 0.747164, -0.216226, -0.69789, 0.919746, -0.386896, -0.481484, 0.900509, -0.466211, -0.404225, 0.000244238, -0.591441, -0.83219, 0.52773, -0.501606, -0.846962, 0.484212, -0.887676, -0.643986, 0.146058, -0.728827, -0.60696, 0.762553, -0.773247, -0.439297, 0.900509, -0.466211, -0.404225, 0.749703, -0.747326, -0.014123, 0.760984, -0.759077, -0.0932108, 0.484212, -0.887676, -0.643986, 0.52773, -0.501606, -0.846962, 0.646821, -0.641377, -0.580857, 0.644948, -0.893596, -0.51234, 0.646821, -0.641377, -0.580857, 0.900509, -0.466211, -0.404225, 0.762553, -0.773247, -0.439297, 0.644948, -0.893596, -0.51234, 0.646821, -0.641377, -0.580857, 0.52773, -0.501606, -0.846962, 0.740036, -0.426562, -0.671019, 0.900509, -0.466211, -0.404225, 0.20744, 0.962751, -0.379152, 0.036836, 0.99703, -0.406478, 0.0486189, 0.970657, -0.238242, 0.26198, 0.956991, -0.256803, 0.451684, 0.963604, -0.077551, 0.39214, 0.86636, -0.439771, 0.20744, 0.962751, -0.379152, 0.26198, 0.956991, -0.256803, 0.236908, 0.344303, -0.785187, 0.546976, 0.548283, -0.680661, 0.522872, 0.125264, -0.689605, 0.170462, 0.167775, -0.781261, 0.882378, 0.162763, -0.470063, 0.703971, 0.403478, -0.514193, 0.880585, 0.453066, -0.0971513, 0.959554, 0.202679, -0.266035, 0.880585, 0.453066, -0.0971513, 1.04271, 0.338756, 0.00620944, 1.02535, 0.0537733, -0.0558919, 0.959554, 0.202679, -0.266035, 0.729587, 0.716163, -0.115443, 0.689309, 0.636477, -0.284951, 0.39214, 0.86636, -0.439771, 0.451684, 0.963604, -0.077551, 0.546976, 0.548283, -0.680661, 0.709056, 0.350723, -0.640624, 0.749983, 0.10958, -0.649686, 0.522872, 0.125264, -0.689605, 0.749983, 0.10958, -0.649686, 0.709056, 0.350723, -0.640624, 0.703971, 0.403478, -0.514193, 0.882378, 0.162763, -0.470063, 0.39214, 0.86636, -0.439771, 0.435882, 0.69675, -0.624166, 0.225795, 0.740412, -0.674144, 0.20744, 0.962751, -0.379152, 0.225795, 0.740412, -0.674144, 0.435882, 0.69675, -0.624166, 0.546976, 0.548283, -0.680661, 0.236908, 0.344303, -0.785187, 0.703971, 0.403478, -0.514193, 0.689309, 0.636477, -0.284951, 0.729587, 0.716163, -0.115443, 0.880585, 0.453066, -0.0971513, 0.546976, 0.548283, -0.680661, 0.435882, 0.69675, -0.624166, 0.39214, 0.86636, -0.439771, 0.614891, 0.540091, -0.479782, 0.39214, 0.86636, -0.439771, 0.689309, 0.636477, -0.284951, 0.614891, 0.540091, -0.479782, 0.703971, 0.403478, -0.514193, 0.703971, 0.403478, -0.514193, 0.709056, 0.350723, -0.640624, 0.546976, 0.548283, -0.680661, 0.614891, 0.540091, -0.479782, -0.163992, -0.513145, 0.863506, 0.0555308, -0.503322, 0.895653, 0.167861, -0.31086, 1.00931, -0.213561, -0.281134, 0.890356, -0.0707251, -0.115994, 1.07317, -0.213561, -0.281134, 0.890356, 0.167861, -0.31086, 1.00931, 0.0191149, -0.111155, 1.0786, -0.102244, -1.09612, 0.0907973, 0.0633702, -1.10143, 0.141572, 0.194106, -1.07497, 0.254397, -0.167606, -1.02623, 0.246152, -0.186382, -0.869919, 0.540901, -0.167606, -1.02623, 0.246152, 0.194106, -1.07497, 0.254397, 0.245764, -0.780958, 0.680766, -0.186382, -0.869919, 0.540901, 0.245764, -0.780958, 0.680766, 0.19574, -0.710131, 0.757031, -0.19704, -0.671413, 0.73351, -0.163992, -0.513145, 0.863506, -0.19704, -0.671413, 0.73351, 0.19574, -0.710131, 0.757031, 0.0555308, -0.503322, 0.895653, -0.196419, 0.0917484, 1.07843, 0.165516, 0.155279, 1.05489, 0.223189, 0.426337, 0.798642, -0.170152, 0.385644, 0.828096, 0.0451687, 0.0119242, 1.08878, 0.165516, 0.155279, 1.05489, -0.196419, 0.0917484, 1.07843, -0.0885713, -0.0235455, 1.09987, 0.0785198, 0.913814, 0.527876, 0.130854, 0.844734, 0.189598, -0.137498, 0.929966, 0.237381, -0.0982433, 0.942111, 0.425877, -0.164769, 0.560854, 0.676525, 0.107271, 0.556173, 0.673639, 0.0785198, 0.913814, 0.527876, -0.0982433, 0.942111, 0.425877, 0.223189, 0.426337, 0.798642, 0.107271, 0.556173, 0.673639, -0.164769, 0.560854, 0.676525, -0.170152, 0.385644, 0.828096, -0.135284, -0.954088, -0.532494, 0.170168, -0.907056, -0.538351, 0.124573, -1.08963, -0.297526, -0.078509, -1.07805, -0.28756, 0.00964191, -1.13403, -0.130763, -0.078509, -1.07805, -0.28756, 0.124573, -1.08963, -0.297526, 0.102122, -1.11794, -0.0901582, -0.224113, -0.303775, -0.927352, 0.134599, -0.263165, -0.839433, 0.000244238, -0.591441, -0.83219, -0.0584988, -0.613509, -0.807756, -0.0584988, -0.613509, -0.807756, 0.000244238, -0.591441, -0.83219, 0.146058, -0.728827, -0.60696, -0.0704729, -0.762962, -0.685802, -0.135284, -0.954088, -0.532494, -0.0704729, -0.762962, -0.685802, 0.146058, -0.728827, -0.60696, 0.170168, -0.907056, -0.538351, 0.00127133, 0.95738, -0.0112576, 0.26198, 0.956991, -0.256803, 0.0486189, 0.970657, -0.238242, -0.179097, 1.02186, -0.175057, -0.149747, 1.01252, -0.342852, 0.036836, 0.99703, -0.406478, -0.146555, 0.873647, -0.557004, 0.20744, 0.962751, -0.379152, 0.0486189, 0.970657, -0.238242, 0.036836, 0.99703, -0.406478, -0.149747, 1.01252, -0.342852, -0.179097, 1.02186, -0.175057, -0.157743, 0.428407, -0.787217, 0.236908, 0.344303, -0.785187, 0.170462, 0.167775, -0.781261, -0.242075, 0.241655, -0.958845, -0.144859, 0.670454, -0.746992, 0.225795, 0.740412, -0.674144, 0.236908, 0.344303, -0.785187, -0.157743, 0.428407, -0.787217, 0.20744, 0.962751, -0.379152, 0.225795, 0.740412, -0.674144, -0.144859, 0.670454, -0.746992, -0.146555, 0.873647, -0.557004, -0.102244, -1.09612, 0.0907973, -0.167606, -1.02623, 0.246152, -0.131825, -0.923614, -0.150822, 0.00964191, -1.13403, -0.130763, -0.645074, -0.817523, 0.161135, -0.624723, -0.762848, -0.161514, -0.131825, -0.923614, -0.150822, -0.167606, -1.02623, 0.246152, -0.696707, -0.679607, 0.153912, -0.858554, -0.242107, 0.207322, -0.943477, -0.189003, -0.148192, -0.78786, -0.526527, -0.157578, -0.699309, -0.736621, 0.083241, -0.696707, -0.679607, 0.153912, -0.78786, -0.526527, -0.157578, -0.706491, -0.719984, -0.0214473, -0.699309, -0.736621, 0.083241, -0.706491, -0.719984, -0.0214473, -0.624723, -0.762848, -0.161514, -0.645074, -0.817523, 0.161135, 0.102122, -1.11794, -0.0901582, 0.323857, -1.05199, -0.105944, 0.194106, -1.07497, 0.254397, 0.0633702, -1.10143, 0.141572, 0.194106, -1.07497, 0.254397, 0.323857, -1.05199, -0.105944, 0.524614, -0.962124, -0.103364, 0.539866, -0.883515, 0.31205, 0.749703, -0.747326, -0.014123, 0.943231, -0.197202, -0.0780269, 1.02717, -0.238651, 0.248816, 0.850583, -0.563396, 0.224208, 1.02717, -0.238651, 0.248816, 0.943231, -0.197202, -0.0780269, 1.04725, -0.0491396, 0.0583031, 1.06116, -0.0971498, 0.195236, 0.760984, -0.759077, -0.0932108, 0.749703, -0.747326, -0.014123, 0.704428, -0.765595, 0.203035, 0.850583, -0.563396, 0.224208, 0.539866, -0.883515, 0.31205, 0.524614, -0.962124, -0.103364, 0.760984, -0.759077, -0.0932108, 0.704428, -0.765595, 0.203035, -0.907939, 0.158348, 0.263239, -0.729259, 0.454707, 0.234601, -0.908483, 0.479345, -0.116641, -1.00174, 0.0521817, -0.157844, -0.529022, 0.828442, 0.258931, -0.400939, 0.998031, 0.0528235, -0.369484, 1.01933, -0.00578002, -0.474081, 0.937736, -0.190026, 0.00127133, 0.95738, -0.0112576, -0.179097, 1.02186, -0.175057, -0.179892, 0.996326, 0.0668179, -0.137498, 0.929966, 0.237381, -0.179892, 0.996326, 0.0668179, -0.179097, 1.02186, -0.175057, -0.369484, 1.01933, -0.00578002, -0.400939, 0.998031, 0.0528235, -0.729259, 0.454707, 0.234601, -0.792767, 0.655289, 0.191516, -0.776471, 0.663974, -0.0911259, -0.908483, 0.479345, -0.116641, -0.529022, 0.828442, 0.258931, -0.474081, 0.937736, -0.190026, -0.776471, 0.663974, -0.0911259, -0.792767, 0.655289, 0.191516, 1.02535, 0.0537733, -0.0558919, 1.04271, 0.338756, 0.00620944, 1.04474, 0.384712, 0.257991, 1.04692, 0.118968, 0.319964, 1.04474, 0.384712, 0.257991, 1.04271, 0.338756, 0.00620944, 0.880585, 0.453066, -0.0971513, 1.02822, 0.472708, 0.2499, 0.52689, 0.96014, 0.192684, 0.451684, 0.963604, -0.077551, 0.26198, 0.956991, -0.256803, 0.130854, 0.844734, 0.189598, 0.880585, 0.453066, -0.0971513, 0.729587, 0.716163, -0.115443, 0.8469, 0.822523, 0.295972, 1.02822, 0.472708, 0.2499, 0.8469, 0.822523, 0.295972, 0.729587, 0.716163, -0.115443, 0.451684, 0.963604, -0.077551, 0.52689, 0.96014, 0.192684, -0.793802, -0.238065, 0.612537, -0.799644, 0.164641, 0.600999, -0.907939, 0.158348, 0.263239, -0.858554, -0.242107, 0.207322, -0.0707251, -0.115994, 1.07317, -0.0885713, -0.0235455, 1.09987, -0.196419, 0.0917484, 1.07843, -0.213561, -0.281134, 0.890356, -0.486489, -0.136218, 0.804934, -0.213561, -0.281134, 0.890356, -0.196419, 0.0917484, 1.07843, -0.522795, 0.128647, 0.960907, -0.662126, -0.034514, 0.827018, -0.70883, 0.121197, 0.779998, -0.799644, 0.164641, 0.600999, -0.793802, -0.238065, 0.612537, -0.662126, -0.034514, 0.827018, -0.486489, -0.136218, 0.804934, -0.522795, 0.128647, 0.960907, -0.70883, 0.121197, 0.779998, -0.943477, -0.189003, -0.148192, -1.00174, 0.0521817, -0.157844, -1.03857, 0.116534, -0.421652, -0.805792, -0.371956, -0.422016, -0.674762, -0.203166, -0.850202, -0.477748, 0.198949, -0.911113, -0.370281, 0.126989, -0.944478, -0.419776, -0.10812, -0.937662, -0.279215, -0.210383, -0.956679, -0.275673, 0.18365, -0.974691, -0.242075, 0.241655, -0.958845, -0.224113, -0.303775, -0.927352, -0.370281, 0.126989, -0.944478, -0.275673, 0.18365, -0.974691, -0.279215, -0.210383, -0.956679, -0.419776, -0.10812, -0.937662, -0.805792, -0.371956, -0.422016, -1.03857, 0.116534, -0.421652, -0.978918, 0.248812, -0.647372, -0.799524, -0.192233, -0.778317, -0.978918, 0.248812, -0.647372, -0.477748, 0.198949, -0.911113, -0.674762, -0.203166, -0.850202, -0.799524, -0.192233, -0.778317, 0.167861, -0.31086, 1.00931, 0.165516, 0.155279, 1.05489, 0.0451687, 0.0119242, 1.08878, 0.0191149, -0.111155, 1.0786, 0.167861, -0.31086, 1.00931, 0.496445, -0.164737, 0.833189, 0.456715, 0.000537497, 0.996134, 0.165516, 0.155279, 1.05489, 1.06116, -0.0971498, 0.195236, 1.04692, 0.118968, 0.319964, 1.02024, 0.0725365, 0.446499, 1.01966, -0.0553454, 0.401202, 0.880917, -0.192952, 0.576384, 1.01966, -0.0553454, 0.401202, 1.02024, 0.0725365, 0.446499, 0.928301, 0.153765, 0.531374, 0.880917, -0.192952, 0.576384, 0.928301, 0.153765, 0.531374, 0.764107, 0.0232789, 0.795237, 0.726378, -0.0754485, 0.772427, 0.496445, -0.164737, 0.833189, 0.726378, -0.0754485, 0.772427, 0.764107, 0.0232789, 0.795237, 0.456715, 0.000537497, 0.996134, 0.170462, 0.167775, -0.781261, 0.522872, 0.125264, -0.689605, 0.497342, -0.368172, -0.878661, 0.134599, -0.263165, -0.839433, 0.919746, -0.386896, -0.481484, 0.882378, 0.162763, -0.470063, 0.959554, 0.202679, -0.266035, 0.943231, -0.197202, -0.0780269, 0.959554, 0.202679, -0.266035, 1.02535, 0.0537733, -0.0558919, 1.04725, -0.0491396, 0.0583031, 0.943231, -0.197202, -0.0780269, 0.747164, -0.216226, -0.69789, 0.749983, 0.10958, -0.649686, 0.882378, 0.162763, -0.470063, 0.919746, -0.386896, -0.481484, 0.522872, 0.125264, -0.689605, 0.749983, 0.10958, -0.649686, 0.747164, -0.216226, -0.69789, 0.497342, -0.368172, -0.878661, -0.858554, -0.242107, 0.207322, -0.907939, 0.158348, 0.263239, -1.00174, 0.0521817, -0.157844, -0.943477, -0.189003, -0.148192, 1.04725, -0.0491396, 0.0583031, 1.02535, 0.0537733, -0.0558919, 1.04692, 0.118968, 0.319964, 1.06116, -0.0971498, 0.195236, -0.0707251, -0.115994, 1.07317, 0.0191149, -0.111155, 1.0786, 0.0451687, 0.0119242, 1.08878, -0.0885713, -0.0235455, 1.09987, -0.242075, 0.241655, -0.958845, 0.170462, 0.167775, -0.781261, 0.134599, -0.263165, -0.839433, -0.224113, -0.303775, -0.927352, -0.102244, -1.09612, 0.0907973, 0.00964191, -1.13403, -0.130763, 0.102122, -1.11794, -0.0901582, 0.0633702, -1.10143, 0.141572, 0.130854, 0.844734, 0.189598, 0.26198, 0.956991, -0.256803, 0.00127133, 0.95738, -0.0112576, -0.137498, 0.929966, 0.237381 )

[node name="Asteroid" type="RigidBody"]
transform = Transform( 0.860789, 0.233531, -0.452223, -0.377594, 0.888791, -0.259757, 0.34127, 0.394353, 0.853241, 0, 0, 0 )
collision_layer = 4
collision_mask = 7
mass = 30.0
contacts_reported = 10
contact_monitor = true
script = ExtResource( 1 )
NUG_RNG = 0.1
nug_scn = ExtResource( 4 )

[node name="asteroid_sd" parent="." instance=ExtResource( 2 )]
transform = Transform( 1.7, 5.96046e-08, 2.98023e-08, 2.98023e-08, 1.7, 0, -2.98023e-08, 0, 1.7, 0, 0, 0 )

[node name="CollisionShape" type="CollisionShape" parent="."]
transform = Transform( 1.7, 0, 0, 0, 1.7, 0, 0, 0, 1.7, 0, 0, 0 )
shape = SubResource( 1 )

[node name="nugs" type="Spatial" parent="."]
transform = Transform( 1, 0, 2.98023e-08, 1.49012e-08, 1, 0, 0, 0, 1, 0, 0, 0 )

[node name="nug" type="MeshInstance" parent="nugs"]
transform = Transform( 1, 1.04308e-07, 2.68221e-07, -1.04308e-07, 1, -2.68221e-07, -2.68221e-07, 2.68221e-07, 1, -1.51046, -0.221178, -0.338775 )
mesh = ExtResource( 3 )
material/0 = null

[node name="nug2" type="MeshInstance" parent="nugs"]
transform = Transform( 0.858126, -0.485876, 0.165972, -0.133522, 0.100955, 0.985892, -0.495776, -0.868179, 0.0217569, -0.0781378, 0.363545, -1.44129 )
mesh = ExtResource( 3 )
material/0 = null

[node name="nug3" type="MeshInstance" parent="nugs"]
transform = Transform( 0.706056, -0.676155, -0.21048, 0.633206, 0.469717, 0.615157, -0.317075, -0.567612, 0.759792, -1.08151, 0.420536, 1.20803 )
mesh = ExtResource( 3 )
material/0 = null

[node name="nug4" type="MeshInstance" parent="nugs"]
transform = Transform( 0.293793, -0.919963, 0.259534, -0.955853, -0.284519, 0.0734966, 0.0062282, -0.269668, -0.962937, 1.46551, -0.45383, -0.636493 )
mesh = ExtResource( 3 )
material/0 = null

[node name="nug5" type="MeshInstance" parent="nugs"]
transform = Transform( 0.197057, 0.757303, -0.622629, -0.186381, 0.652437, 0.734571, 0.962517, -0.0287056, 0.269713, 1.4939, 0.877619, 0.741446 )
mesh = ExtResource( 3 )
material/0 = null

[node name="nug6" type="MeshInstance" parent="nugs"]
transform = Transform( 0.685805, 0.66986, -0.284546, -0.539288, 0.205183, -0.816748, -0.488721, 0.713578, 0.501961, 0.159818, 1.51432, 0.378695 )
mesh = ExtResource( 3 )
material/0 = null

[node name="nug7" type="MeshInstance" parent="nugs"]
transform = Transform( -0.403292, -0.751891, 0.521559, -0.284055, -0.438945, -0.852437, 0.869873, -0.491929, -0.0365551, 1.01084, -0.817282, 1.04109 )
mesh = ExtResource( 3 )
material/0 = null

[node name="nug8" type="MeshInstance" parent="nugs"]
transform = Transform( -0.403291, -0.751891, 0.52156, -0.284055, -0.438945, -0.852438, 0.869874, -0.491929, -0.0365558, -0.0538174, -1.60688, -0.771037 )
mesh = ExtResource( 3 )
material/0 = null
[connection signal="body_entered" from="." to="." method="_on_Asteroid_body_entered"]
